[
  {
    "id": 1,
    "status": "closed",
    "title": "Gitaly is down on server001",
    "description": "\u003ch4 data-sourcepos=\"1:1-1:12\" dir=\"auto\"\u003e\n\u003ca id=\"user-content-summary\" class=\"anchor\" href=\"#summary\" aria-hidden=\"true\"\u003e\u003c/a\u003eSummary\u003c/h4\u003e\n\u003cp data-sourcepos=\"3:1-4:27\" dir=\"auto\"\u003e\u003cstrong\u003eStart time:\u003c/strong\u003e 2020-02-18T06:14:38+00:00\u003cbr\u003e\n\u003cstrong\u003efull_query:\u003c/strong\u003e \u003ccode\u003evector(1)\u003c/code\u003e\u003c/p\u003e\n\u003ch4 data-sourcepos=\"6:1-6:18\" dir=\"auto\"\u003e\n\u003ca id=\"user-content-alert-details\" class=\"anchor\" href=\"#alert-details\" aria-hidden=\"true\"\u003e\u003c/a\u003eAlert Details\u003c/h4\u003e\n\u003cp data-sourcepos=\"8:1-9:43\" dir=\"auto\"\u003e\u003cstrong\u003edescription:\u003c/strong\u003e Annotation \u003cstrong\u003edescription\u003c/strong\u003e\u003cbr\u003e\n\u003cstrong\u003erunbook:\u003c/strong\u003e troubleshooting/gitaly-down.md\u003c/p\u003e",
    "updated_at": "2020-02-21T07:04:05.333Z",
    "created_at": "2020-02-21T07:04:05.333Z",
    "links": {
      "details": "data/incident/1.json"
    }
  }
]