{
  "id": 1,
  "title": "High error rate on gitlab.com web requests",
  "status": "closed",
  "description": "<h3 data-sourcepos=\"1:1-1:20\" dir=\"auto\">\n<a id=\"user-content-problem-to-solve\" class=\"anchor\" href=\"#problem-to-solve\" aria-hidden=\"true\"></a>Problem to solve</h3>\n<p data-sourcepos=\"3:1-3:343\" dir=\"auto\">Incident response teams need a place to publish details such as a full list of systems affected, estimated remediation time, and steps to perform for manual remediation or workarounds. Incident teams can mitigate the flood of support tickets and customer emails that accompany downtime and degraded usage by publishing up-to-date information.</p>\n<p data-sourcepos=\"5:1-5:286\" dir=\"auto\">Users and customers want to validate if the problems they are experiencing are systemwide or localized. During an active incident, they want to see up-to-date troubleshooting information to gauge how long and how broadly their usage may be affected to they can plan actions accordingly.</p>\n<h3 data-sourcepos=\"7:1-7:18\" dir=\"auto\">\n<a id=\"user-content-intended-users\" class=\"anchor\" href=\"#intended-users\" aria-hidden=\"true\"></a>Intended users</h3>\n<p data-sourcepos=\"9:1-9:69\" dir=\"auto\">See <a href=\"https://gitlab.com/gitlab-org/gitlab/issues/205164#intended-users\" data-original=\"https://gitlab.com/gitlab-org/gitlab/issues/205164#intended-users\" data-link=\"false\" data-link-reference=\"true\" data-project=\"278964\" data-issue=\"30654929\" data-reference-type=\"issue\" data-container=\"body\" data-placement=\"top\" data-html=\"true\" title=\"Status page lists recent incidents\" class=\"gfm gfm-issue has-tooltip\">#205164</a></p>\n<h3 data-sourcepos=\"11:1-11:19\" dir=\"auto\">\n<a id=\"user-content-further-details\" class=\"anchor\" href=\"#further-details\" aria-hidden=\"true\"></a>Further details</h3>\n<p data-sourcepos=\"12:1-12:122\" dir=\"auto\">This work supports the <a href=\"https://about.gitlab.com/direction/monitor/debugging_and_health/status_page/\" rel=\"nofollow noreferrer noopener\" target=\"_blank\">Status Page vision</a>.</p>\n\n<h3 data-sourcepos=\"15:1-15:12\" dir=\"auto\">\n<a id=\"user-content-proposal\" class=\"anchor\" href=\"#proposal\" aria-hidden=\"true\"></a>Proposal</h3>\n<ul data-sourcepos=\"17:1-21:0\" dir=\"auto\">\n<li data-sourcepos=\"17:1-17:80\">When a new incident is created a status detail page is automatically generated</li>\n<li data-sourcepos=\"18:1-18:99\">The text in the description of the incident issue is automatically added the status detail page.</li>\n<li data-sourcepos=\"19:1-19:92\">When the incident issue description is updated, the status page is automatically updated.</li>\n<li data-sourcepos=\"20:1-21:0\">Status detail pages should have a unique, permanent URL so users can link directly to the incident</li>\n</ul>\n<h3 data-sourcepos=\"22:1-22:16\" dir=\"auto\">\n<a id=\"user-content-out-of-scope\" class=\"anchor\" href=\"#out-of-scope\" aria-hidden=\"true\"></a>Out of scope</h3>\n<ul data-sourcepos=\"24:1-26:0\" dir=\"auto\">\n<li data-sourcepos=\"24:1-24:119\">This iteration does not include pulling images from the incident issue and rendering them on the status detail page.</li>\n<li data-sourcepos=\"25:1-26:0\">This iteration does not include posting comments to the detail page.</li>\n</ul>\n<h3 data-sourcepos=\"27:1-27:10\" dir=\"auto\">\n<a id=\"user-content-design\" class=\"anchor\" href=\"#design\" aria-hidden=\"true\"></a>Design</h3>\n<p data-sourcepos=\"29:1-29:166\" dir=\"auto\">For this issue, we'll be displaying the incident description on the incident detail page only, which (at gitlab) generally includes both the summary and the timeline:</p>\n<p data-sourcepos=\"31:1-31:123\" dir=\"auto\"><a class=\"no-attachment-icon gfm\" href=\"/gitlab-org/gitlab/uploads/8298155777eadaa30821cd62cf166663/Screen_Shot_2020-02-13_at_9.46.32_AM.png\" target=\"_blank\" rel=\"noopener noreferrer\"><img src=\"/gitlab-org/gitlab/uploads/8298155777eadaa30821cd62cf166663/Screen_Shot_2020-02-13_at_9.46.32_AM.png\" alt=\"Screen_Shot_2020-02-13_at_9.46.32_AM\" class=\"gfm js-lazy-loaded qa-js-lazy-loaded\"></a></p>\n<p data-sourcepos=\"33:1-33:132\" dir=\"auto\">The open/closed badge shown in the design above can be added in a separate issue: <a href=\"https://gitlab.com/gitlab-org/gitlab/issues/205581\" data-original=\"https://gitlab.com/gitlab-org/gitlab/issues/205581\" data-link=\"false\" data-link-reference=\"true\" data-project=\"278964\" data-issue=\"30734283\" data-reference-type=\"issue\" data-container=\"body\" data-placement=\"top\" data-html=\"true\" title=\"Add open/closed status to incident detail page\" class=\"gfm gfm-issue has-tooltip\">#205581</a></p>\n<h3 data-sourcepos=\"35:1-35:28\" dir=\"auto\">\n<a id=\"user-content-permissions-and-security\" class=\"anchor\" href=\"#permissions-and-security\" aria-hidden=\"true\"></a>Permissions and Security</h3>\n\n<h3 data-sourcepos=\"39:1-39:17\" dir=\"auto\">\n<a id=\"user-content-documentation\" class=\"anchor\" href=\"#documentation\" aria-hidden=\"true\"></a>Documentation</h3>\n<p data-sourcepos=\"40:1-40:88\" dir=\"auto\">Documentation required. We will need to create a new section in docs called Status page.</p>\n\n<h3 data-sourcepos=\"45:1-45:26\" dir=\"auto\">\n<a id=\"user-content-availability-testing\" class=\"anchor\" href=\"#availability-testing\" aria-hidden=\"true\"></a>Availability &amp; Testing</h3>\n\n<p data-sourcepos=\"59:1-59:207\" dir=\"auto\">A new end to end test will be introduced to cover the functionality of this feature, please follow up in <a href=\"https://gitlab.com/gitlab-org/quality/testcases/issues/264\" data-original=\"E2E test for Status Page with Incidents\" data-link=\"true\" data-link-reference=\"true\" data-project=\"11229385\" data-issue=\"30970680\" data-reference-type=\"issue\" data-container=\"body\" data-placement=\"top\" data-html=\"true\" title=\"E2E test for Status Page with Incidents\" class=\"gfm gfm-issue has-tooltip\">E2E test for Status Page with Incidents</a></p>\n<h3 data-sourcepos=\"61:1-61:61\" dir=\"auto\">\n<a id=\"user-content-what-does-success-look-like-and-how-can-we-measure-that\" class=\"anchor\" href=\"#what-does-success-look-like-and-how-can-we-measure-that\" aria-hidden=\"true\"></a>What does success look like, and how can we measure that?</h3>\n\n<h3 data-sourcepos=\"65:1-65:30\" dir=\"auto\">\n<a id=\"user-content-what-is-the-type-of-buyer\" class=\"anchor\" href=\"#what-is-the-type-of-buyer\" aria-hidden=\"true\"></a>What is the type of buyer?</h3>\n\n<h3 data-sourcepos=\"69:1-69:22\" dir=\"auto\">\n<a id=\"user-content-links-references\" class=\"anchor\" href=\"#links-references\" aria-hidden=\"true\"></a>Links / references</h3>\n<p data-sourcepos=\"71:1-71:114\" dir=\"auto\"><a href=\"https://gitlab-org.gitlab.io/gitlab-design/hosted/amelia/gl%2335430-status-page-mvc-spec-previews/\" rel=\"nofollow noreferrer noopener\" target=\"_blank\">Measure spec</a></p>\n<p data-sourcepos=\"73:1-73:94\" dir=\"auto\">Full designs for the MVC and future iterations in <a href=\"https://sketch.cloud/s/z3yZb\" rel=\"nofollow noreferrer noopener\" target=\"_blank\">Sketch cloud</a></p>\n<p data-sourcepos=\"75:1-75:132\" dir=\"auto\"><a href=\"https://app.mural.co/t/gitlab2474/m/gitlab2474/1580410553179/f5d39aff6b11055ffbe968da4094e21c6710741f\" rel=\"nofollow noreferrer noopener\" target=\"_blank\">User flow</a> viewable in Mural</p>        <img\n          class=\"gl-image\"\n          src=\"https://gitlab.com/gitlab-org/gitlab/uploads/bb0188e1437e979ced4e7208e394d4bf/Screen_Shot_2019-11-12_at_6.51.03_PM.png\"\n        />",
  "created_at": "2019-11-30T16:59:22+00:0",
  "updated_at": "2020-02-21T07:10:46.097Z",
  "comments": [
    {
      "created_at": "2020-03-08T00:13:00.406Z",
      "note": "\n    <blockquote data-sourcepos=\"1:1-1:191\" dir=\"auto\">\n        <p data-sourcepos=\"1:3-1:191\">Do you know if we will be able to render embedded images in comments when we\n            complete work on <a href=\"https://gitlab.com/gitlab-org/gitlab/issues/205166\"\n                                data-original=\"https://gitlab.com/gitlab-org/gitlab/issues/205166\" data-link=\"false\"\n                                data-link-reference=\"true\" data-project=\"278964\" data-issue=\"30654967\"\n                                data-reference-type=\"issue\" data-container=\"body\" data-placement=\"top\" data-html=\"true\"\n                                title=\"Render images in incident details for Status page\"\n                                class=\"gfm gfm-issue has-tooltip\">#205166</a>? If not, we will create an additional\n            issue.</p>\n    </blockquote>\n    <p data-sourcepos=\"3:1-3:42\" dir=\"auto\">I'm not sure. <a href=\"/ohoral\" data-user=\"4339707\"\n                                                             data-reference-type=\"user\" data-container=\"body\"\n                                                             data-placement=\"top\" data-html=\"true\"\n                                                             class=\"gfm gfm-project_member current-user\"\n                                                             title=\"Olena Horal-Koretska\">@ohoral</a> <a\n            href=\"/splattael\" data-user=\"438961\" data-reference-type=\"user\" data-container=\"body\" data-placement=\"top\"\n            data-html=\"true\" class=\"gfm gfm-project_member\" title=\"Peter Leitzen\">@splattael</a> thoughts?</p>"
    },
    {
      "created_at": "2020-11-30T00:13:00.406Z",
      "note": "<p data-sourcepos=\"1:1-1:17\" dir=\"auto\"><gl-emoji title=\"gay_pride_flag\" data-name=\"gay_pride_flag\" data-unicode-version=\"6.0\">\uD83C\uDFF3\uD83C\uDF08</gl-emoji></p>"
    },
    {
      "created_at": "2020-11-30T00:13:00.406Z",
      "note": "<gl-emoji title=\"microphone\" data-name=\"microphone\" data-unicode-version=\"6.0\">\uD83C\uDFA4</gl-emoji>"
    },
    {
      "created_at": "2020-11-30T00:13:00.406Z",
      "note": "<p data-sourcepos=\"1:1-1:17\" dir=\"auto\"><gl-emoji title=\"gay_pride_flag\" data-name=\"la_la_flag\" data-unicode-version=\"6.0\">\uD83C\uDFF3\uD83C\uDF08</gl-emoji></p>"
    },
    {
      "created_at": "2020-01-30T00:13:00.406Z",
      "note": "\u003cp data-sourcepos=\"1:1-1:257\" dir=\"auto\"\u003e\u003cgl-emoji title=\"hundred points symbol\" data-name=\"100\" data-unicode-version=\"6.0\"\u003e💯\u003c/gl-emoji\u003e \u003cgl-emoji title=\"input symbol for numbers\" data-name=\"1234\" data-unicode-version=\"6.0\"\u003e🔢\u003c/gl-emoji\u003e \u003cgl-emoji title=\"billiards\" data-name=\"8ball\" data-unicode-version=\"6.0\"\u003e🎱\u003c/gl-emoji\u003e \u003cgl-emoji title=\"negative squared latin capital letter a\" data-name=\"a\" data-unicode-version=\"6.0\"\u003e🅰\u003c/gl-emoji\u003e \u003cgl-emoji title=\"negative squared ab\" data-name=\"ab\" data-unicode-version=\"6.0\"\u003e🆎\u003c/gl-emoji\u003e \u003cgl-emoji title=\"input symbol for latin letters\" data-name=\"abc\" data-unicode-version=\"6.0\"\u003e🔤\u003c/gl-emoji\u003e \u003cgl-emoji title=\"input symbol for latin small letters\" data-name=\"abcd\" data-unicode-version=\"6.0\"\u003e🔡\u003c/gl-emoji\u003e \u003cgl-emoji title=\"circled ideograph accept\" data-name=\"accept\" data-unicode-version=\"6.0\"\u003e🉑\u003c/gl-emoji\u003e \u003cgl-emoji title=\"ascension\" data-name=\"flag_ac\" data-unicode-version=\"6.0\"\u003e🇦🇨\u003c/gl-emoji\u003e \u003cgl-emoji title=\"back with leftwards arrow above\" data-name=\"back\" data-unicode-version=\"6.0\"\u003e🔙\u003c/gl-emoji\u003e \u003cgl-emoji title=\"raised back of hand\" data-name=\"raised_back_of_hand\" data-unicode-version=\"9.0\"\u003e🤚\u003c/gl-emoji\u003e \u003cgl-emoji title=\"raised back of hand tone 1\" data-name=\"raised_back_of_hand_tone1\" data-unicode-version=\"9.0\"\u003e🤚🏻\u003c/gl-emoji\u003e \u003cgl-emoji title=\"raised back of hand tone 1\" data-name=\"raised_back_of_hand_tone1\" data-unicode-version=\"9.0\"\u003e🤚🏻\u003c/gl-emoji\u003e \u003cgl-emoji title=\"raised back of hand tone 2\" data-name=\"raised_back_of_hand_tone2\" data-unicode-version=\"9.0\"\u003e🤚🏼\u003c/gl-emoji\u003e \u003cgl-emoji title=\"raised back of hand tone 4\" data-name=\"raised_back_of_hand_tone4\" data-unicode-version=\"9.0\"\u003e🤚🏾\u003c/gl-emoji\u003e \u003cgl-emoji title=\"raised back of hand tone 5\" data-name=\"raised_back_of_hand_tone5\" data-unicode-version=\"9.0\"\u003e🤚🏿\u003c/gl-emoji\u003e \u003cgl-emoji title=\"barbados\" data-name=\"flag_bb\" data-unicode-version=\"6.0\"\u003e🇧🇧\u003c/gl-emoji\u003e \u003cgl-emoji title=\"rabbit\" data-name=\"rabbit2\" data-unicode-version=\"6.0\"\u003e🐇\u003c/gl-emoji\u003e \u003cgl-emoji title=\"ribbon\" data-name=\"ribbon\" data-unicode-version=\"6.0\"\u003e🎀\u003c/gl-emoji\u003e \u003cgl-emoji title=\"barbados\" data-name=\"flag_bb\" data-unicode-version=\"6.0\"\u003e🇧🇧\u003c/gl-emoji\u003e \u003cgl-emoji title=\"input symbol for latin capital letters\" data-name=\"capital_abcd\" data-unicode-version=\"6.0\"\u003e🔠\u003c/gl-emoji\u003e \u003cgl-emoji title=\"bangladesh\" data-name=\"flag_bd\" data-unicode-version=\"6.0\"\u003e🇧🇩\u003c/gl-emoji\u003e \u003cgl-emoji title=\"bangladesh\" data-name=\"flag_bd\" data-unicode-version=\"6.0\"\u003e🇧🇩\u003c/gl-emoji\u003e \u003cgl-emoji title=\"circled ideograph accept\" data-name=\"accept\" data-unicode-version=\"6.0\"\u003e🉑\u003c/gl-emoji\u003e\u003c/p\u003e"
    }
  ]
}
