{
  "id": 1,
  "title": "Font awesome test",
  "status": "closed",
  "description": "<table class=\"admonitionblock table-bordered\">\n    <tr>\n        <td class=\"icon\">\n            <i class=\"fa icon-note\" aria-hidden=\"true\"></i>\n        </td>\n        <td class=\"icon\">\n            <i class=\"fa icon-warning\" aria-hidden=\"true\"></i>\n        </td>\n        <td class=\"icon\">\n            <i class=\"fa icon-caution\" aria-hidden=\"true\"></i>\n        </td>\n        <td class=\"icon\">\n            <i class=\"fa icon-important\" aria-hidden=\"true\"></i>\n        </td>\n        <td class=\"icon\">\n            <i class=\"fa icon-tip\" aria-hidden=\"true\"></i>\n        </td>\n    </tr>\n</table>",
  "created_at": "2019-11-30T16:59:22+00:0",
  "updated_at": "2020-02-21T07:10:46.097Z",
  "comments": [
    {
      "created_at": "2020-03-08T00:13:00.406Z",
      "note": "Neque porro quisquam est qui dolorem ipsum quia dolor sit amet, consectetur, adipisci velit..."
    },
    {
      "created_at": "2020-11-30T00:13:00.406Z",
      "note": "Neque porro quisquam est qui dolorem ipsum quia dolor sit amet, consectetur, adipisci velit..."
    },
    {
      "created_at": "2020-05-30T00:13:00.406Z",
      "note": "Neque porro quisquam est qui dolorem ipsum quia dolor sit amet, consectetur, adipisci velit..."
    },
    {
      "created_at": "2020-01-30T00:13:00.406Z",
      "note": "Neque porro quisquam est qui dolorem ipsum quia dolor sit amet, consectetur, adipisci velit..."
    }
  ]
}
